{
  "resources": [
    {
      "data": [
        {"name":"Mike","occupation":"Scientist"},
        {"name":"Charles","occupation":"Engineer"}
      ],
      "name": "missing-one-field",
      "profile": "tabular-data-resource",
      "schema": {
        "missingValues":["Missing"],
        "fields":[
          {"name":"name","type":"string"},
          {"name":"occupation","type":"string","constraints":{"enum":["Scientist","Architect"]}},
          {"name":"age","type":"integer"}
        ]
      }
    },
    {
      "data": [
        {"name":"Tommy","age":25.3},
        {"name":"Katie"}
      ],
      "name": "missing-two-fields",
      "profile": "tabular-data-resource",
      "schema": {
        "missingValues":["Missing"],
        "fields":[
          {"name":"name","type":"string","constraints":{"enum":["Tommy","Rachel"]}},
          {"name":"occupation","type":"string"},
          {"name":"age","type":"integer"}
        ]
      }
    }
  ],
  "profile": "data-package"
}